<svg width="32" height="32" viewBox="0 0 32 32" fill="none" xmlns="http://www.w3.org/2000/svg">
<g filter="url(#filter0_i)">
<rect width="32" height="32" rx="4" fill="#68DBD6"/>
</g>
<rect x="0.5" y="0.5" width="31" height="31" rx="3.5" stroke="#E0DFDF"/>
<path d="M25.8729 15.611C25.6942 15.3665 21.4371 9.62634 15.9999 9.62634C10.5627 9.62634 6.30539 15.3665 6.12691 15.6107C5.9577 15.8426 5.9577 16.1571 6.12691 16.389C6.30539 16.6334 10.5627 22.3736 15.9999 22.3736C21.4371 22.3736 25.6942 16.6333 25.8729 16.3892C26.0423 16.1573 26.0423 15.8426 25.8729 15.611ZM15.9999 21.0549C11.9949 21.0549 8.52606 17.245 7.49922 15.9995C8.52473 14.7529 11.9863 10.945 15.9999 10.945C20.0048 10.945 23.4733 14.7542 24.5006 16.0004C23.4751 17.247 20.0135 21.0549 15.9999 21.0549Z" fill="white"/>
<path d="M15.9998 12.044C13.8184 12.044 12.0437 13.8187 12.0437 16.0001C12.0437 18.1814 13.8184 19.9561 15.9998 19.9561C18.1811 19.9561 19.9558 18.1814 19.9558 16.0001C19.9558 13.8187 18.1811 12.044 15.9998 12.044ZM15.9998 18.6374C14.5455 18.6374 13.3624 17.4543 13.3624 16.0001C13.3624 14.5458 14.5455 13.3627 15.9998 13.3627C17.454 13.3627 18.6371 14.5458 18.6371 16.0001C18.6371 17.4543 17.4541 18.6374 15.9998 18.6374Z" fill="white"/>
<defs>
<filter id="filter0_i" x="0" y="0" width="32" height="33" filterUnits="userSpaceOnUse" color-interpolation-filters="sRGB">
<feFlood flood-opacity="0" result="BackgroundImageFix"/>
<feBlend mode="normal" in="SourceGraphic" in2="BackgroundImageFix" result="shape"/>
<feColorMatrix in="SourceAlpha" type="matrix" values="0 0 0 0 0 0 0 0 0 0 0 0 0 0 0 0 0 0 127 0" result="hardAlpha"/>
<feOffset dy="1"/>
<feGaussianBlur stdDeviation="3"/>
<feComposite in2="hardAlpha" operator="arithmetic" k2="-1" k3="1"/>
<feColorMatrix type="matrix" values="0 0 0 0 0 0 0 0 0 0 0 0 0 0 0 0 0 0 0.3 0"/>
<feBlend mode="normal" in2="shape" result="effect1_innerShadow"/>
</filter>
</defs>
</svg>
