<svg width="31" height="31" viewBox="0 0 31 31" fill="none" xmlns="http://www.w3.org/2000/svg">
<path d="M23.331 9.60962C24.297 9.60962 25.08 8.82656 25.08 7.8606C25.08 6.89464 24.297 6.11157 23.331 6.11157C22.3651 6.11157 21.582 6.89464 21.582 7.8606C21.582 8.82656 22.3651 9.60962 23.331 9.60962Z" fill="#27115B"/>
<path d="M15.5668 8.35108C14.115 8.34925 12.6953 8.77809 11.4873 9.58334C10.2792 10.3886 9.33721 11.5341 8.78035 12.8748C8.2235 14.2156 8.07685 15.6914 8.35896 17.1156C8.64108 18.5397 9.33927 19.8482 10.3652 20.8754C11.3911 21.9026 12.6987 22.6025 14.1225 22.8864C15.5463 23.1703 17.0223 23.0255 18.3638 22.4703C19.7052 21.9152 20.8519 20.9746 21.6587 19.7676C22.4655 18.5606 22.8961 17.1414 22.8961 15.6896C22.8936 13.7456 22.121 11.8819 20.7473 10.5064C19.3736 9.131 17.5108 8.35598 15.5668 8.35108ZM15.5668 20.3814C14.6371 20.3814 13.7281 20.1057 12.9551 19.5891C12.182 19.0726 11.5794 18.3384 11.2236 17.4794C10.8678 16.6203 10.7747 15.6751 10.9561 14.7632C11.1375 13.8513 11.5852 13.0136 12.2427 12.3562C12.9001 11.6987 13.7378 11.251 14.6497 11.0696C15.5616 10.8882 16.5069 10.9813 17.3659 11.3371C18.2249 11.6929 18.9591 12.2955 19.4756 13.0685C19.9922 13.8416 20.2679 14.7505 20.2679 15.6803C20.2679 16.928 19.7729 18.1247 18.8916 19.0078C18.0102 19.8909 16.8145 20.3882 15.5668 20.3907V20.3814Z" fill="#27115B"/>
<path d="M21.3877 30.5795H9.49615C7.12356 30.577 4.84884 29.6334 3.17116 27.9558C1.49348 26.2781 0.54989 24.0034 0.547441 21.6308V9.73926C0.552338 7.36827 1.49701 5.09593 3.17443 3.42025C4.85184 1.74457 7.12516 0.802249 9.49615 0.799805H21.3877C23.7587 0.802249 26.032 1.74457 27.7094 3.42025C29.3868 5.09593 30.3315 7.36827 30.3364 9.73926V21.6308C30.3339 24.0034 29.3903 26.2781 27.7127 27.9558C26.035 29.6334 23.7603 30.577 21.3877 30.5795ZM9.49615 3.59454C7.86722 3.59699 6.30571 4.24516 5.15388 5.39699C4.00205 6.54882 3.35388 8.11033 3.35143 9.73926V21.6308C3.35143 23.2605 3.99882 24.8234 5.15118 25.9757C6.30354 27.1281 7.86647 27.7755 9.49615 27.7755H21.3877C23.0174 27.7755 24.5803 27.1281 25.7326 25.9757C26.885 24.8234 27.5324 23.2605 27.5324 21.6308V9.73926C27.5299 8.11033 26.8818 6.54882 25.7299 5.39699C24.5781 4.24516 23.0166 3.59699 21.3877 3.59454H9.49615Z" fill="#27115B"/>
</svg>
