<svg width="59" height="48" viewBox="0 0 59 48" fill="none" xmlns="http://www.w3.org/2000/svg">
<path d="M56.9859 2.04507C56.5455 1.58687 56.0164 1.22422 55.4313 0.979485C54.8462 0.734753 54.2175 0.613121 53.5838 0.62209H5.40959C4.77593 0.613121 4.14716 0.734753 3.56205 0.979485C2.97694 1.22422 2.44789 1.58687 2.00752 2.04507C1.5518 2.48784 1.19113 3.01978 0.947725 3.60809C0.704322 4.1964 0.583351 4.8286 0.592271 5.46572V42.2775C0.583206 42.9148 0.704107 43.5472 0.947515 44.1357C1.19092 44.7242 1.55167 45.2563 2.00752 45.6992C2.44798 46.1572 2.97707 46.5197 3.56218 46.7642C4.14728 47.0088 4.77601 47.1303 5.40959 47.1212H53.5849C54.8613 47.1172 56.0843 46.6057 56.9869 45.6982C57.8895 44.7906 58.3983 43.5609 58.4022 42.2775V5.46572C58.411 4.82853 58.2898 4.19628 58.0462 3.60796C57.8026 3.01965 57.4418 2.48775 56.9859 2.04507ZM54.5466 42.2775C54.5442 42.5335 54.4419 42.7783 54.2619 42.9593C54.0819 43.1403 53.8384 43.2431 53.5838 43.2456H5.40959C5.15516 43.2426 4.91201 43.1396 4.73209 42.9587C4.55218 42.7778 4.44977 42.5333 4.44676 42.2775V5.46466C4.4503 5.20902 4.55288 4.96484 4.73268 4.78406C4.91249 4.60327 5.15533 4.50013 5.40959 4.49657H53.5849C53.8391 4.49987 54.082 4.60296 54.2617 4.78383C54.4414 4.9647 54.5436 5.20903 54.5466 5.46466V42.2775Z" fill="white"/>
<path d="M13.7941 20.7297C15.3651 20.7297 16.6999 20.1185 17.7986 18.896C18.8973 17.6736 19.4473 16.1906 19.4487 14.4471C19.4615 13.6193 19.3217 12.7973 19.0379 12.0318C18.7541 11.2663 18.3324 10.5734 17.7986 9.99582C16.6986 8.77337 15.3637 8.16214 13.7941 8.16214C12.2244 8.16214 10.8896 8.77337 9.78956 9.99582C9.25572 10.5734 8.83393 11.2662 8.55015 12.0318C8.26637 12.7973 8.12661 13.6193 8.13949 14.4471C8.13949 16.1914 8.68951 17.6743 9.78956 18.896C10.8896 20.1177 12.2244 20.7289 13.7941 20.7297Z" fill="white"/>
<path d="M22.705 29.0988L21.0607 27.4854C20.2091 26.65 19.0543 26.1808 17.8501 26.1808C16.646 26.1808 15.4911 26.65 14.6395 27.4854L8.13867 33.8638V39.581H50.8684V26.2412L41.454 17.0073C40.6025 16.172 39.4476 15.7027 38.2435 15.7027C37.0393 15.7027 35.8844 16.172 35.0329 17.0073L22.705 29.0988Z" fill="white"/>
</svg>
