<svg width="16" height="16" viewBox="0 0 16 16" fill="none" xmlns="http://www.w3.org/2000/svg">
<path d="M14.4906 14.1364C14.4892 13.1471 14.1329 12.1911 13.4866 11.4423C12.8403 10.6936 11.9469 10.2017 10.9687 10.0562L8.53192 12.4941C8.46184 12.5642 8.37863 12.6199 8.28705 12.6578C8.19547 12.6958 8.09731 12.7153 7.99818 12.7153C7.89905 12.7153 7.80089 12.6958 7.70931 12.6578C7.61773 12.6199 7.53453 12.5642 7.46444 12.4941L5.02762 10.0562C4.04984 10.2021 3.15683 10.6941 2.51088 11.4429C1.86494 12.1916 1.50893 13.1473 1.50756 14.1364V15.6834H-0.00303078V14.1364C-0.00159073 12.7631 0.500618 11.4375 1.40939 10.4083C2.31817 9.37909 3.57106 8.71696 4.93305 8.54611C4.36475 7.84425 4.05581 6.96776 4.05834 6.06451V0.755032C4.05834 0.554995 4.13769 0.363133 4.27896 0.221572C4.42023 0.0800109 4.61187 0.000321344 4.81182 0L8.76105 0C9.60457 0.000963344 10.4133 0.33667 11.0097 0.933457C11.6061 1.53024 11.9415 2.33936 11.9423 3.18326V6.06451C11.9429 6.96732 11.6327 7.84279 11.0639 8.54368C12.4263 8.71458 13.6795 9.37707 14.5884 10.4068C15.4972 11.4365 15.9992 12.7627 16 14.1364V15.6834H14.4906V14.1364ZM7.11953 10.0125L7.99848 10.8925L8.87926 10.0113L7.11953 10.0125ZM10.4335 3.18326C10.4328 2.7397 10.2564 2.31449 9.94294 2.00084C9.62943 1.68719 9.20441 1.5107 8.76105 1.51006H5.56651V2.71569C5.56683 3.00376 5.6814 3.27993 5.88506 3.48357C6.08872 3.68722 6.36483 3.80168 6.65278 3.80184H10.4335V3.18326ZM10.4335 5.31191H6.65217C6.27721 5.31233 5.90668 5.23078 5.56651 5.07296V6.06451C5.57659 6.70355 5.83741 7.31301 6.29268 7.76135C6.74795 8.2097 7.36117 8.46099 8 8.46099C8.63883 8.46099 9.25205 8.2097 9.70732 7.76135C10.1626 7.31301 10.4234 6.70355 10.4335 6.06451V5.31191Z" fill="#A0A0A0"/>
</svg>
